[
    {
        "tag_name": "v1.0",
        "name": "pixL OS (fake release from Beta 29.1)",
        "draft": false,
        "prerelease": false,
        "created_at": "2022-12-05T10:09:00",
        "published_at": "2022-12-05T11:00:00Z",
        "assets": [
            {
                "name": "install.sh",
                "size": 3623,
                "created_at": "2022-12-04T19:00:00Z",
                "updated_at": "2022-12-04T19:00:00Z",
                "browser_download_url": "https://updates.pixl-os.com/latest_release/x86_64/install.sh"
            },
            {
                "name": "version.sh",
                "size": 438,
                "created_at": "2022-12-04T19:00:00Z",
                "updated_at": "2022-12-04T19:00:00Z",
                "browser_download_url": "https://updates.pixl-os.com/latest_release/x86_64/version.sh"
            },
            {
                "name": "recalbox-x86_64.img.xz",
                "size": 2061450372,
                "created_at": "2022-11-25T22:42:40Z",
                "updated_at": "2022-11-25T22:42:40Z",
                "browser_download_url": "https://updates.pixl-os.com/latest_release/x86_64/recalbox-x86_64.img.xz"
            },
            {
                "name": "recalbox-x86_64.img.xz.sha1",
                "size": 65,
                "created_at": "2022-11-25T22:46:06Z",
                "updated_at": "2022-11-25T22:46:06Z",
                "browser_download_url": "https://updates.pixl-os.com/latest_release/x86_64/recalbox-x86_64.img.xz.sha1"
            }
        ],
        "body": "## [RETRO-X] - Fake Release for test - Beta29 - 2022-11-21\n- OS:\n\t- Save online update FbNeo resources in libretro-fbneo package\n\t- Bump Pcsx2 and save online update Pcsx2 resources\n\t- Bump Xemu to v0.7.70 and add online update-resources\n\t- move repository to github for supermodel and bump to v906\n\t- Bump dolphin-emu to 5.0-17269\n\t- Bump Duckstation new latest version 2022-05-19\n\t- Fix force disabled Xemu cache disk option \n\t- Change Mame default emulator to libretro-mame\n\t- Change Nintendo 64 default emulator to libretro-parallel_n64 #[20]\n\t- Fix error when save/change favorites #[19]\n\t- Add wheel mapping :\n\t\t- Microsoft SideWinder Precision Racing Wheel USB version 1.0\n\t- Fix vulkan for librerto-pcsx2 #[15]\n\t- Fix N64 mupen64plus glide64mk2 no FPS print #[2]\n\t- Bump Libretro-mame to 0.248 and add online update-resources\n\t- Add another Microsoft Xbox One X|S Controllers default configuration\n\t- Add volume only for boot video\n\t- Add folder share/videos for load videos per system in the theme shinretro\n\t- Resize first partition 9Go to 6Go\n\t- Update Nintendo Swicth N64 controller mapping (bluetooth & usb) to well manage C Buttons\n\t- Add MAYFLASH N64 Controller Adapter MF103 mapping\n\t- Add folder and readme.txt for themes from share_init\n\t- Add new package to copy last version of gameOS in share_init/themes folder during build\n\t- Add new package to copy last version of shinretro in share_init/themes folder during build\n\t- Add all media for all roms in base\n\t- Add Mayflash N64 Controller Adpater v1 mapping\n\t- Add shinretro update online\n\t- Change deactivateskrapermedia to position off #[34]\n\t- Add variable for color pegasus and debuglog in recalbox.conf\n\t\t- kodi.enabled=0\n\t\t- pegasus.deactivateskrapermedia=0\n\t\t- wifi.region=EU\n\t- Add Nacon Revolution Unlimited Pro Controller\n\t- Bump shinretro v0.201.1\n\n- Configgen:\n \t- Fix Pcsx2 vsync option\n\n- Other:\n\t- Update README.md change recalbox by pixL\n\t- Update DOCUMENTATION.md change recalbox by pixL\n\t- Update LICENSE.md change recalbox by pixL\n\t- Update TESTING.md change recalbox by pixL\n\n- Emulation:\n\t- Configgen improved to manage opposite for sticks axes (support of joystick1/2right/down from es_inputs.cfg)\n\t- Configgen manage Libretro sticks minus and plus axe, button and hat now\n\t- Remap B button automatically for pad without X button for retroarch N64 cores\n\t- Add evmapy command for mupen64plus_next and parallel_n64 cores to manage N64 controller game exit using START+B\n\n- Pegasus-Frontend v0.0.9:\n\t- Optimize scan folder for load all media download by scraper\n\t- Fixes on wifi menu\n\t- Add system videos from 'share/videos' directory in collections (to be used with Shinretro theme)\n\t- Add volume only for video boot\n\t- Translation about: parameter lists, vulkan driver, boot video volume, new axes for N64, color settings\n\t- Gamepad editor custom view for N64 Controllers (switch one, 8bitdo one, original ones using adapter)\n\t- Support of +r/-r and -y/+y axis management for buttons of right stick as for N64 controllers\n\t- Support of N64 controllers (with specific visual of N64 controller) and extended SDL 2 mappings using +/-righy & +/-rightx\n\t- Extraction of gameOS theme from Pegasus\n\t- Add update online for supermodel, citra-emu, pcsx2, dolphin-emu, libretro-mame, xemu\n\t- Optimization folder for all pad\n\t- Add detection of Mayflash N64 controler adapter V1 as N64 controller for gamepad editor\n\t- Change color of background, text, and selected in settings menu \n\t- Add layout controller PS5\n\t- Add shinretro update online\n\t- Add xboxone controller layout\n\t- Bump last commit pegasus 2022-11-20\n\n- Theme (gameOS-pixL-master) v1.20:\n\t- new design management :\n\t- Fix demo mode launched in game #[16]\n\n\t- other new feature:\n\t\t- optimize scan folder for load all media download by scraper\n\t\t- fix list of media\n\t\t- add logo for roms in base\n\n\t- multi-languages-support :\n\t\t- Fix in qml code to translate in french for collection 6 to 10 #[23]\n\t\t- Fix in qml code to be able to translate in french for platform page style #[24]\n\t\t- Add fr for wide and tall #[25]\n\t\t- correction wording \"Meileurs\" to \"Meilleurs\"\n\n- Theme (shinretro-pixL-master) v0.201.1:\n\t- Add virtual Keyboard in #[67]\n"
    }
]
