[
    {
        "tag_name": "v510.108.03",
        "name": "Nvidia driver (v510.108.03) Linux 64-bit",
        "draft": false,
        "prerelease": false,
        "created_at": "2023-03-22T19:00:00Z",
        "published_at": "2023-03-22T19:00:00Z",
        "assets": [
            {
                "name": "install.sh",
                "size": 4346,
                "created_at": "2022-05-02T19:00:00Z",
                "updated_at": "2022-05-02T19:00:00Z",
                "browser_download_url": "/recalbox/system/hardware/videocard/install-510.sh"
            },
            {
                "name": "version.sh",
                "size": 4346,
                "created_at": "2022-05-02T19:00:00Z",
                "updated_at": "2022-05-02T19:00:00Z",
                "browser_download_url": "/recalbox/system/hardware/videocard/version-510.sh"
            }
        ],
        "body": "##About the NVIDIA Accelerated Linux Graphics Driver:\r\n The NVIDIA Accelerated Linux Graphics Driver brings accelerated 2D functionality and high-performance OpenGL support to Linux x86_64 with the use of NVIDIA graphics processing units (GPUs).\r\n These drivers provide optimized hardware acceleration for OpenGL and X applications and support nearly all recent NVIDIA GPU products (see Appendix A, Supported NVIDIA GPU Products for a complete list of supported GPUs: https://download.nvidia.com/XFree86/Linux-x86_64/510.108.03/README/supportedchips.html). \r\n"
    },
    {
        "tag_name": "v460.84",
        "name": "Nvidia driver (v460.84) Linux 64-bit",
        "draft": false,
        "prerelease": false,
        "created_at": "2022-05-02T19:00:00Z",
        "published_at": "2022-05-02T19:00:00Z",
        "assets": [
            {
                "name": "install.sh",
                "size": 4346,
                "created_at": "2022-05-02T19:00:00Z",
                "updated_at": "2022-05-02T19:00:00Z",
                "browser_download_url": "/recalbox/system/hardware/videocard/install-460.sh"
            },
            {
                "name": "version.sh",
                "size": 4346,
                "created_at": "2022-05-02T19:00:00Z",
                "updated_at": "2022-05-02T19:00:00Z",
                "browser_download_url": "/recalbox/system/hardware/videocard/version-460.sh"
            }
        ],
        "body": "##About the NVIDIA Accelerated Linux Graphics Driver:\r\n The NVIDIA Accelerated Linux Graphics Driver brings accelerated 2D functionality and high-performance OpenGL support to Linux x86_64 with the use of NVIDIA graphics processing units (GPUs).\r\n These drivers provide optimized hardware acceleration for OpenGL and X applications and support nearly all recent NVIDIA GPU products (see Appendix A, Supported NVIDIA GPU Products for a complete list of supported GPUs: https://download.nvidia.com/XFree86/Linux-x86_64/460.84/README/supportedchips.html). \r\n"
    },
    {
        "tag_name": "v390.157",
        "name": "Nvidia driver (v390.157) Linux 64-bit",
        "draft": false,
        "prerelease": false,
        "created_at": "2023-03-22T19:00:00Z",
        "published_at": "2023-03-22T19:00:00Z",
        "assets": [
            {
                "name": "install.sh",
                "size": 4346,
                "created_at": "2022-05-02T19:00:00Z",
                "updated_at": "2022-05-02T19:00:00Z",
                "browser_download_url": "/recalbox/system/hardware/videocard/install-390.sh"
            },
            {
                "name": "version.sh",
                "size": 4346,
                "created_at": "2022-05-02T19:00:00Z",
                "updated_at": "2022-05-02T19:00:00Z",
                "browser_download_url": "/recalbox/system/hardware/videocard/version-390.sh"
            }
        ],
        "body": "##About the NVIDIA Accelerated Linux Graphics Driver:\r\n The NVIDIA Accelerated Linux Graphics Driver brings accelerated 2D functionality and high-performance OpenGL support to Linux x86_64 with the use of NVIDIA graphics processing units (GPUs).\r\n These drivers provide optimized hardware acceleration for OpenGL and X applications and support nearly all recent NVIDIA GPU products (see Appendix A, Supported NVIDIA GPU Products for a complete list of supported GPUs: https://download.nvidia.com/XFree86/Linux-x86_64/390.157/README/supportedchips.html). \r\n"
    }        
]
